%YAML 1.1
%TAG !u! tag:unity3d.com,2011:
--- !u!1001 &4153545569250857499
PrefabInstance:
  m_ObjectHideFlags: 0
  serializedVersion: 2
  m_Modification:
    m_TransformParent: {fileID: 0}
    m_Modifications:
    - target: {fileID: 8701766418356718216, guid: f2023e5a757fab24ea6f8df5d2650cf5,
        type: 3}
      propertyPath: m_Name
      value: Red Projectile Variant
      objectReference: {fileID: 0}
    - target: {fileID: 8701766418356718216, guid: f2023e5a757fab24ea6f8df5d2650cf5,
        type: 3}
      propertyPath: m_Layer
      value: 9
      objectReference: {fileID: 0}
    - target: {fileID: 8701766418356718222, guid: f2023e5a757fab24ea6f8df5d2650cf5,
        type: 3}
      propertyPath: m_LocalPosition.x
      value: 4.09
      objectReference: {fileID: 0}
    - target: {fileID: 8701766418356718222, guid: f2023e5a757fab24ea6f8df5d2650cf5,
        type: 3}
      propertyPath: m_LocalPosition.y
      value: -2.53
      objectReference: {fileID: 0}
    - target: {fileID: 8701766418356718222, guid: f2023e5a757fab24ea6f8df5d2650cf5,
        type: 3}
      propertyPath: m_LocalPosition.z
      value: 0.22
      objectReference: {fileID: 0}
    - target: {fileID: 8701766418356718222, guid: f2023e5a757fab24ea6f8df5d2650cf5,
        type: 3}
      propertyPath: m_LocalRotation.x
      value: -0.032880105
      objectReference: {fileID: 0}
    - target: {fileID: 8701766418356718222, guid: f2023e5a757fab24ea6f8df5d2650cf5,
        type: 3}
      propertyPath: m_LocalRotation.y
      value: -0.0065476624
      objectReference: {fileID: 0}
    - target: {fileID: 8701766418356718222, guid: f2023e5a757fab24ea6f8df5d2650cf5,
        type: 3}
      propertyPath: m_LocalRotation.z
      value: 0.00021540889
      objectReference: {fileID: 0}
    - target: {fileID: 8701766418356718222, guid: f2023e5a757fab24ea6f8df5d2650cf5,
        type: 3}
      propertyPath: m_LocalRotation.w
      value: 0.99943787
      objectReference: {fileID: 0}
    - target: {fileID: 8701766418356718222, guid: f2023e5a757fab24ea6f8df5d2650cf5,
        type: 3}
      propertyPath: m_RootOrder
      value: 0
      objectReference: {fileID: 0}
    - target: {fileID: 8701766418356718222, guid: f2023e5a757fab24ea6f8df5d2650cf5,
        type: 3}
      propertyPath: m_LocalEulerAnglesHint.x
      value: -3.7680001
      objectReference: {fileID: 0}
    - target: {fileID: 8701766418356718222, guid: f2023e5a757fab24ea6f8df5d2650cf5,
        type: 3}
      propertyPath: m_LocalEulerAnglesHint.y
      value: -0.75200003
      objectReference: {fileID: 0}
    - target: {fileID: 8701766418356718222, guid: f2023e5a757fab24ea6f8df5d2650cf5,
        type: 3}
      propertyPath: m_LocalEulerAnglesHint.z
      value: 0.049000002
      objectReference: {fileID: 0}
    - target: {fileID: 2136820184, guid: f2023e5a757fab24ea6f8df5d2650cf5, type: 3}
      propertyPath: m_IsTrigger
      value: 1
      objectReference: {fileID: 0}
    - target: {fileID: 8701766418356718221, guid: f2023e5a757fab24ea6f8df5d2650cf5,
        type: 3}
      propertyPath: speed
      value: 10
      objectReference: {fileID: 0}
    m_RemovedComponents: []
  m_SourcePrefab: {fileID: 100100000, guid: f2023e5a757fab24ea6f8df5d2650cf5, type: 3}
